79036541234	79013454321	15
79036541234	79096543221	20
79036541234	79001001221	5
79036541234	78005553535	0
79036541234	79013454321	10
79036541234	78005553535	12
79036541234	79096543221	20
79036541234	79013454321	50
79036541234	78005553535	40
79036541234	79013454321	12
79036541234	79096543221	13
79013454321	79036541234	21
79013454321	78005553535	42
79013454321	79036541234	23
79013454321	79036541234	20
79013454321	78005553535	13
79013454321	79001001221	14
79013454321	79096543221	15
79013454321	79096543221	14
79013454321	78005553535	12
79013454321	79096543221	13
79013454321	79036541234	15
79013454321	79001001221	13
79013454321	79036541234	14
79013454321	79001001221	15
79013454321	79001001221	12
79096543221	79036541234	13
79096543221	79013454321	14
79096543221	79001001221	1
79096543221	78005553535	23
79096543221	79036541234	12
79096543221	79001001221	4
79096543221	79013454321	12
79096543221	78005553535	32
79096543221	79036541234	22
79096543221	79001001221	11
79096543221	79013454321	23
79096543221	78005553535	4
79096543221	79001001221	1
79001001221	79013454321	10
79001001221	79036541234	24
79001001221	78005553535	15
79001001221	79036541234	12
79001001221	79013454321	14
79001001221	79096543221	11
79001001221	78005553535	10
79001001221	79013454321	2
79001001221	79036541234	3
78005553535	79001001221	14
78005553535	79036541234	13
78005553535	79096543221	12
78005553535	79013454321	4
78005553535	79001001221	1
78005553535	79096543221	12
78005553535	79013454321	13
78005553535	79036541234	1
78005553535	79001001221	20
78005553535	79096543221	4
78005553535	79013454321	1
78005553535	79001001221	1
78005553535	79036541234	2
78005553535	79013454321	23
78005553535	79096543221	14
78005553535	79001001221	1
78005553535	79036541234	12